<svg width="17" height="9" viewBox="0 0 17 9" fill="none" xmlns="http://www.w3.org/2000/svg">
<rect width="1" height="11" transform="matrix(-0.707107 -0.707107 -0.707107 0.707107 16.2339 0.707031)" fill="white"/>
<rect width="1" height="11" transform="matrix(-0.707107 0.707107 0.707107 0.707107 0.707031 0.512207)" fill="white"/>
</svg>
